<!-- Generated by IcoMoon.io -->
<svg version="1.1" xmlns="http://www.w3.org/2000/svg" width="25" height="32" viewBox="0 0 25 32">
<title>licence-blue</title>
<path fill="#006" d="M20.968 23.584c0 1.147-0.413 3.070-3.177 3.070h-13.978c-1.109 0-2.542-1.489-2.542-3.070v-15.968c0-2.301 0.92-2.538 9.848-2.538s9.848 0.237 9.848 2.538zM11.086 1.269c1.138-0.004 2.276 0.049 3.409 0.161l-0.953 2.383c-0.753-0.005-1.552-0.005-2.425-0.005s-1.672 0-2.425 0.005l-0.955-2.386c1.113-0.109 2.231-0.162 3.349-0.157zM22.238 23.584v-15.968c0-3.156-1.936-3.695-7.33-3.787l0.889-2.227c1.707 0.283 2.564 0.683 2.628 0.937 0 0.35 0.285 0.635 0.635 0.635s0.635-0.284 0.635-0.635c0-2.208-5.392-2.538-8.609-2.538-2.568 0-8.546 0.247-8.546 2.538 0 0.35 0.284 0.635 0.635 0.635s0.635-0.284 0.635-0.635c0.064-0.254 0.915-0.659 2.624-0.942l0.893 2.23c-5.392 0.095-7.33 0.633-7.33 3.789v15.968c0 1.904 1.43 3.778 3.068 4.233l-2.16 1.488c-0.289 0.199-0.361 0.595-0.162 0.883s0.595 0.361 0.884 0.162l3.523-2.426h11.932l3.521 2.426c0.289 0.199 0.685 0.127 0.884-0.162s0.127-0.684-0.162-0.883l-2.218-1.528c2.275-0.523 3.127-2.408 3.127-4.194z"></path>
<path fill="#3bbf19" d="M24.227 21.575l-4.669-2.283c-0.13-0.063-0.281-0.063-0.411 0l-4.669 2.276c-0.16 0.078-0.262 0.24-0.262 0.418v4.355c0.014 0.563 0.149 1.117 0.397 1.623 0.332 0.712 0.829 1.328 1.363 1.691l3.113 2.113c0.159 0.108 0.367 0.108 0.526 0l3.113-2.113c0.987-0.67 1.76-2.126 1.76-3.314v-4.348c0-0.177-0.101-0.339-0.261-0.418z"></path>
<path fill="#fff" d="M17.703 25.081c-0.119-0.117-0.292-0.162-0.453-0.117s-0.286 0.172-0.327 0.334c-0.041 0.162 0.008 0.333 0.128 0.449l1.41 1.371c0.181 0.176 0.471 0.176 0.652 0l2.541-2.469c0.12-0.116 0.169-0.287 0.128-0.449s-0.166-0.289-0.327-0.334c-0.161-0.045-0.334-0-0.453 0.117l-2.215 2.152z"></path>
<path fill="#006" d="M3.875 9.282c0-0.3 0.489-0.413 0.799-0.413h12.838c0.355 0 0.848 0.144 0.848 0.413l0.002 6.975c0 0.336-0.472 0.766-0.85 0.766h-12.838c-0.365 0-0.799-0.415-0.799-0.766v-6.975zM4.674 18.277h12.839c1.084 0 2.108-0.981 2.108-2.020v-6.975c0.002-1.094-1.059-1.667-2.108-1.667h-12.839c-1.193 0-2.059 0.701-2.059 1.667v6.975c0 1.039 1 2.020 2.059 2.020z"></path>
<path fill="#006" d="M5.122 23.987c-0.692 0-1.253-0.56-1.253-1.25s0.561-1.25 1.253-1.25c0.692 0 1.253 0.56 1.253 1.25s-0.561 1.25-1.253 1.25zM5.122 20.234c-1.385 0-2.507 1.12-2.507 2.502s1.123 2.502 2.507 2.502 2.507-1.12 2.507-2.502c-0-1.382-1.123-2.502-2.507-2.502z"></path>
</svg>
