<!-- Generated by IcoMoon.io -->
<svg version="1.1" xmlns="http://www.w3.org/2000/svg" width="31" height="32" viewBox="0 0 31 32">
<title>solar-panels</title>
<path fill="none" stroke="#f6b517" stroke-linejoin="miter" stroke-linecap="butt" stroke-miterlimit="50" stroke-width="1.7778" d="M18.241 15.392c1.33-0.903 2.204-2.425 2.204-4.15 0-2.772-2.255-5.019-5.037-5.019s-5.037 2.247-5.037 5.019c0 1.735 0.884 3.265 2.227 4.166"></path>
<path fill="#f6b517" d="M15.526 3.793c0.524 0 0.948-0.425 0.948-0.948v-1.896c0-0.524-0.424-0.948-0.948-0.948s-0.948 0.424-0.948 0.948v1.896c0 0.524 0.425 0.948 0.948 0.948z"></path>
<path fill="#f6b517" d="M10.438 4.462c0.264 0.45 0.841 0.602 1.292 0.342s0.608-0.837 0.35-1.29l-0.948-1.642c-0.168-0.296-0.482-0.479-0.822-0.48s-0.655 0.181-0.824 0.476c-0.169 0.295-0.168 0.658 0.004 0.952z"></path>
<path fill="#f6b517" d="M6.020 6.984l1.642 0.948c0.294 0.172 0.657 0.174 0.952 0.004s0.477-0.484 0.476-0.824c-0.001-0.34-0.184-0.654-0.48-0.822l-1.642-0.948c-0.294-0.172-0.657-0.174-0.952-0.004s-0.477 0.484-0.476 0.824c0.001 0.34 0.184 0.654 0.48 0.822z"></path>
<path fill="#f6b517" d="M5.096 12.326h1.896c0.524 0 0.948-0.425 0.948-0.948s-0.425-0.948-0.948-0.948h-1.896c-0.524 0-0.948 0.425-0.948 0.948s0.425 0.948 0.948 0.948z"></path>
<path fill="#f6b517" d="M23.111 11.378c0 0.524 0.424 0.948 0.948 0.948h1.896c0.524 0 0.948-0.425 0.948-0.948s-0.424-0.948-0.948-0.948h-1.896c-0.524 0-0.948 0.425-0.948 0.948z"></path>
<path fill="#f6b517" d="M22.922 8.059c0.166 0 0.33-0.043 0.474-0.127l1.642-0.948c0.296-0.168 0.479-0.482 0.48-0.822s-0.181-0.655-0.476-0.824c-0.295-0.169-0.658-0.168-0.952 0.004l-1.642 0.948c-0.372 0.215-0.553 0.652-0.442 1.067s0.487 0.703 0.916 0.703z"></path>
<path fill="#f6b517" d="M19.319 4.809c0.453 0.262 1.033 0.106 1.295-0.347l0.948-1.642c0.172-0.294 0.174-0.657 0.004-0.952s-0.484-0.477-0.824-0.476c-0.34 0.001-0.654 0.184-0.822 0.48l-0.948 1.642c-0.262 0.453-0.106 1.033 0.347 1.295z"></path>
<path fill="none" stroke="#006" stroke-linejoin="miter" stroke-linecap="square" stroke-miterlimit="50" stroke-width="1.7778" d="M9.778 16.139l-1.481 13.944"></path>
<path fill="none" stroke="#006" stroke-linejoin="miter" stroke-linecap="square" stroke-miterlimit="50" stroke-width="1.7778" d="M20.741 16.139l1.481 13.944"></path>
<path fill="none" stroke="#006" stroke-linejoin="miter" stroke-linecap="square" stroke-miterlimit="50" stroke-width="1.7778" d="M15.267 16.099l-0.016 14.023"></path>
<path fill="none" stroke="#006" stroke-linejoin="miter" stroke-linecap="butt" stroke-miterlimit="50" stroke-width="3.5556" d="M1.778 16.575c0-0.164 0.133-0.296 0.296-0.296h26.607c0.164 0 0.296 0.133 0.296 0.296v13.351c0 0.164-0.133 0.296-0.296 0.296h-26.607c-0.164 0-0.296-0.133-0.296-0.296z"></path>
<path fill="none" stroke="#006" stroke-linejoin="miter" stroke-linecap="square" stroke-miterlimit="50" stroke-width="1.7778" d="M2.622 25.948h25.618"></path>
<path fill="none" stroke="#006" stroke-linejoin="miter" stroke-linecap="square" stroke-miterlimit="50" stroke-width="1.7778" d="M3.327 20.911h24.29"></path>
</svg>
